Eight-Register_Register_File/mux16bit8to1.vcd
$date
   Sat Oct  7 11:45:58 2023
$end
$version
  P.20131013
$end
$timescale
  1ps
$end
$scope module mux16bit8to1_tb $end
$var wire 1 ! Y $end
$var reg 16 " A [15:0] $end
$var reg 4 # S [3:0] $end
$scope module UUT $end
$var wire 1 &" a0 $end
$var wire 1 !" a1 $end
$var wire 1 z! a2 $end
$var wire 1 u! a3 $end
$var wire 1 p! a4 $end
$var wire 1 k! a5 $end
$var wire 1 f! a6 $end
$var wire 1 +" a7 $end
$var wire 1 t a8 $end
$var wire 1 o a9 $end
$var wire 1 j a10 $end
$var wire 1 e a11 $end
$var wire 1 ` a12 $end
$var wire 1 [ a13 $end
$var wire 1 V a14 $end
$var wire 1 y a15 $end
$var wire 1 V" s0 $end
$var wire 1 X" s1 $end
$var wire 1 Z" s2 $end
$var wire 1 i" s3 $end
$var wire 1 d" y $end
$var wire 1 c" xlxn_4 $end
$var wire 1 h" xlxn_5 $end
$scope module XLXI_1 $end
$var wire 1 t a0 $end
$var wire 1 o a1 $end
$var wire 1 j a2 $end
$var wire 1 e a3 $end
$var wire 1 ` a4 $end
$var wire 1 [ a5 $end
$var wire 1 V a6 $end
$var wire 1 y a7 $end
$var wire 1 V" s0 $end
$var wire 1 X" s1 $end
$var wire 1 Z" s2 $end
$var wire 1 c" y $end
$var wire 1 D! xlxn_1 $end
$var wire 1 C! xlxn_2 $end
$var wire 1 B! xlxn_3 $end
$var wire 1 A! xlxn_4 $end
$var wire 1 ?! xlxn_5 $end
$var wire 1 >! xlxn_6 $end
$var wire 1 =! xlxn_7 $end
$var wire 1 <! xlxn_8 $end
$var wire 1 E! xlxn_33 $end
$var wire 1 G! xlxn_35 $end
$var wire 1 I! xlxn_36 $end
$scope module XLXI_1 $end
$var wire 1 C! o $end
$var wire 1 V" i0 $end
$var wire 1 G! i1 $end
$var wire 1 I! i2 $end
$var wire 1 V i3 $end
$upscope $end
$scope module XLXI_2 $end
$var wire 1 B! o $end
$var wire 1 E! i0 $end
$var wire 1 X" i1 $end
$var wire 1 I! i2 $end
$var wire 1 [ i3 $end
$upscope $end
$scope module XLXI_3 $end
$var wire 1 A! o $end
$var wire 1 V" i0 $end
$var wire 1 X" i1 $end
$var wire 1 I! i2 $end
$var wire 1 ` i3 $end
$upscope $end
$scope module XLXI_4 $end
$var wire 1 ?! o $end
$var wire 1 E! i0 $end
$var wire 1 Z" i1 $end
$var wire 1 G! i2 $end
$var wire 1 e i3 $end
$upscope $end
$scope module XLXI_5 $end
$var wire 1 >! o $end
$var wire 1 E! i0 $end
$var wire 1 G! i1 $end
$var wire 1 Z" i2 $end
$var wire 1 j i3 $end
$upscope $end
$scope module XLXI_6 $end
$var wire 1 =! o $end
$var wire 1 E! i0 $end
$var wire 1 G! i1 $end
$var wire 1 Z" i2 $end
$var wire 1 o i3 $end
$upscope $end
$scope module XLXI_7 $end
$var wire 1 <! o $end
$var wire 1 V" i0 $end
$var wire 1 X" i1 $end
$var wire 1 Z" i2 $end
$var wire 1 t i3 $end
$upscope $end
$scope module XLXI_8 $end
$var wire 1 D! o $end
$var wire 1 E! i0 $end
$var wire 1 G! i1 $end
$var wire 1 I! i2 $end
$var wire 1 y i3 $end
$upscope $end
$scope module XLXI_24 $end
$var wire 1 <! i0 $end
$var wire 1 =! i1 $end
$var wire 1 >! i2 $end
$var wire 1 ?! i3 $end
$var wire 1 A! i4 $end
$var wire 1 B! i5 $end
$var wire 1 C! i6 $end
$var wire 1 D! i7 $end
$var wire 1 c" o $end
$var wire 1 -! dummy $end
$var wire 1 ;! s0 $end
$var wire 1 @! s1 $end
$var wire 1 .! o_dummy $end
$scope module I_36_91 $end
$var wire 1 .! o $end
$var wire 1 ;! i1 $end
$var wire 1 @! i2 $end
$var wire 1 -! i3 $end
$var wire 1 -! i4 $end
$upscope $end
$scope module I_36_94 $end
$var wire 1 .! o $end
$var wire 1 ;! i0 $end
$var wire 1 @! i1 $end
$upscope $end
$scope module I_36_95 $end
$var wire 1 @! o $end
$var wire 1 A! i0 $end
$var wire 1 B! i1 $end
$var wire 1 C! i2 $end
$var wire 1 D! i3 $end
$upscope $end
$scope module I_36_112 $end
$var wire 1 ;! o $end
$var wire 1 <! i0 $end
$var wire 1 =! i1 $end
$var wire 1 >! i2 $end
$var wire 1 ?! i3 $end
$upscope $end
$scope module I_36_116 $end
$var wire 1 ;! o $end
$var wire 1 <! i1 $end
$var wire 1 =! i2 $end
$var wire 1 >! i3 $end
$var wire 1 ?! i4 $end
$upscope $end
$scope module I_36_117 $end
$var wire 1 @! o $end
$var wire 1 A! i1 $end
$var wire 1 B! i2 $end
$var wire 1 C! i3 $end
$var wire 1 D! i4 $end
$upscope $end
$upscope $end
$scope module XLXI_25 $end
$var wire 1 E! o $end
$var wire 1 V" i $end
$upscope $end
$scope module XLXI_26 $end
$var wire 1 G! o $end
$var wire 1 X" i $end
$upscope $end
$scope module XLXI_27 $end
$var wire 1 I! o $end
$var wire 1 Z" i $end
$upscope $end
$upscope $end
$scope module XLXI_2 $end
$var wire 1 &" a0 $end
$var wire 1 !" a1 $end
$var wire 1 z! a2 $end
$var wire 1 u! a3 $end
$var wire 1 p! a4 $end
$var wire 1 k! a5 $end
$var wire 1 f! a6 $end
$var wire 1 +" a7 $end
$var wire 1 V" s0 $end
$var wire 1 X" s1 $end
$var wire 1 Z" s2 $end
$var wire 1 h" y $end
$var wire 1 T" xlxn_1 $end
$var wire 1 S" xlxn_2 $end
$var wire 1 R" xlxn_3 $end
$var wire 1 Q" xlxn_4 $end
$var wire 1 O" xlxn_5 $end
$var wire 1 N" xlxn_6 $end
$var wire 1 M" xlxn_7 $end
$var wire 1 L" xlxn_8 $end
$var wire 1 U" xlxn_33 $end
$var wire 1 W" xlxn_35 $end
$var wire 1 Y" xlxn_36 $end
$scope module XLXI_1 $end
$var wire 1 S" o $end
$var wire 1 V" i0 $end
$var wire 1 W" i1 $end
$var wire 1 Y" i2 $end
$var wire 1 f! i3 $end
$upscope $end
$scope module XLXI_2 $end
$var wire 1 R" o $end
$var wire 1 U" i0 $end
$var wire 1 X" i1 $end
$var wire 1 Y" i2 $end
$var wire 1 k! i3 $end
$upscope $end
$scope module XLXI_3 $end
$var wire 1 Q" o $end
$var wire 1 V" i0 $end
$var wire 1 X" i1 $end
$var wire 1 Y" i2 $end
$var wire 1 p! i3 $end
$upscope $end
$scope module XLXI_4 $end
$var wire 1 O" o $end
$var wire 1 U" i0 $end
$var wire 1 Z" i1 $end
$var wire 1 W" i2 $end
$var wire 1 u! i3 $end
$upscope $end
$scope module XLXI_5 $end
$var wire 1 N" o $end
$var wire 1 U" i0 $end
$var wire 1 W" i1 $end
$var wire 1 Z" i2 $end
$var wire 1 z! i3 $end
$upscope $end
$scope module XLXI_6 $end
$var wire 1 M" o $end
$var wire 1 U" i0 $end
$var wire 1 W" i1 $end
$var wire 1 Z" i2 $end
$var wire 1 !" i3 $end
$upscope $end
$scope module XLXI_7 $end
$var wire 1 L" o $end
$var wire 1 V" i0 $end
$var wire 1 X" i1 $end
$var wire 1 Z" i2 $end
$var wire 1 &" i3 $end
$upscope $end
$scope module XLXI_8 $end
$var wire 1 T" o $end
$var wire 1 U" i0 $end
$var wire 1 W" i1 $end
$var wire 1 Y" i2 $end
$var wire 1 +" i3 $end
$upscope $end
$scope module XLXI_24 $end
$var wire 1 L" i0 $end
$var wire 1 M" i1 $end
$var wire 1 N" i2 $end
$var wire 1 O" i3 $end
$var wire 1 Q" i4 $end
$var wire 1 R" i5 $end
$var wire 1 S" i6 $end
$var wire 1 T" i7 $end
$var wire 1 h" o $end
$var wire 1 =" dummy $end
$var wire 1 K" s0 $end
$var wire 1 P" s1 $end
$var wire 1 >" o_dummy $end
$scope module I_36_91 $end
$var wire 1 >" o $end
$var wire 1 K" i1 $end
$var wire 1 P" i2 $end
$var wire 1 =" i3 $end
$var wire 1 =" i4 $end
$upscope $end
$scope module I_36_94 $end
$var wire 1 >" o $end
$var wire 1 K" i0 $end
$var wire 1 P" i1 $end
$upscope $end
$scope module I_36_95 $end
$var wire 1 P" o $end
$var wire 1 Q" i0 $end
$var wire 1 R" i1 $end
$var wire 1 S" i2 $end
$var wire 1 T" i3 $end
$upscope $end
$scope module I_36_112 $end
$var wire 1 K" o $end
$var wire 1 L" i0 $end
$var wire 1 M" i1 $end
$var wire 1 N" i2 $end
$var wire 1 O" i3 $end
$upscope $end
$scope module I_36_116 $end
$var wire 1 K" o $end
$var wire 1 L" i1 $end
$var wire 1 M" i2 $end
$var wire 1 N" i3 $end
$var wire 1 O" i4 $end
$upscope $end
$scope module I_36_117 $end
$var wire 1 P" o $end
$var wire 1 Q" i1 $end
$var wire 1 R" i2 $end
$var wire 1 S" i3 $end
$var wire 1 T" i4 $end
$upscope $end
$upscope $end
$scope module XLXI_25 $end
$var wire 1 U" o $end
$var wire 1 V" i $end
$upscope $end
$scope module XLXI_26 $end
$var wire 1 W" o $end
$var wire 1 X" i $end
$upscope $end
$scope module XLXI_27 $end
$var wire 1 Y" o $end
$var wire 1 Z" i $end
$upscope $end
$upscope $end
$scope module XLXI_3 $end
$var wire 1 c" d0 $end
$var wire 1 h" d1 $end
$var wire 1 i" s0 $end
$var wire 1 d" o $end
$var wire 1 f" m0 $end
$var wire 1 g" m1 $end
$scope module I_36_7 $end
$var wire 1 f" o $end
$var wire 1 i" i0 $end
$var wire 1 c" i1 $end
$upscope $end
$scope module I_36_8 $end
$var wire 1 d" o $end
$var wire 1 g" i0 $end
$var wire 1 f" i1 $end
$upscope $end
$scope module I_36_9 $end
$var wire 1 g" o $end
$var wire 1 h" i0 $end
$var wire 1 i" i1 $end
$upscope $end
$upscope $end
$upscope $end
$upscope $end
$enddefinitions $end
#0
$dumpvars
0!"
0z!
0&"
0f!
0+"
0t
0o
0j
0X"
0Z"
0i"
0d"
0e
0`
0[
0V
0y
0V"
0u!
0p!
0k!
b0 "
b0 #
0!
0?!
0c"
0h"
0D!
0C!
0B!
0A!
0>!
0=!
0<!
1E!
1G!
1I!
x-!
0;!
0@!
0.!
0T"
0S"
0R"
0Q"
0O"
0N"
0M"
0L"
1U"
1W"
1Y"
x="
0K"
0P"
0>"
0f"
0g"
$end
#1000
1&"
b1 "
#2000
1!"
0&"
b10 "
#3000
1z!
1&"
b111 "
#4000
0!"
0&"
1u!
b1100 "
#5000
1&"
1p!
b11101 "
#6000
1!"
0z!
0&"
1k!
b111010 "
#7000
1&"
1f!
b1111011 "
#8000
0!"
0&"
1+"
0u!
b11110000 "
1h"
1T"
1P"
1>"
#9000
1z!
1&"
1t
b111110101 "
#10000
1!"
0&"
1o
0p!
b1111100110 "
#11000
1&"
1j
b11111100111 "
#12000
0!"
0z!
0&"
1e
1u!
0k!
b111111001000 "
#13000
1&"
1`
b1111111001001 "
#14000
1!"
0&"
0f!
1[
b11111110001010 "
#15000
1z!
1&"
1V
1p!
b111111110011111 "
#16000
0!"
0&"
0+"
1d"
1y
0u!
b1111111100010100 "
1!
1c"
0h"
1D!
1@!
1.!
0T"
0P"
0>"
1f"
#17000
1&"
1V"
b1111111100010101 "
b1 #
0D!
1C!
0E!
0U"
#18000
1!"
0z!
0&"
0t
1X"
1k!
b1111111000110010 "
b11 #
1h"
0C!
1A!
0G!
1Q"
0W"
1P"
1>"
#19000
1&"
1Z"
0d"
b1111111000110011 "
b111 #
0!
0c"
0A!
0I!
0@!
0.!
0Q"
1L"
0Y"
1K"
0P"
0f"
#20000
0!"
0&"
0o
1i"
0d"
1u!
0p!
b1111110000101000 "
b1111 #
0!
0h"
0L"
0K"
0>"
0g"
#21000
1z!
1&"
1f!
1d"
b1111110001101101 "
1!
1h"
1L"
1K"
1>"
1g"
#22000
1!"
0&"
0j
0d"
b1111100001101110 "
0!
0h"
0L"
0K"
0>"
0g"
#23000
1&"
1d"
b1111100001101111 "
1!
1h"
1L"
1K"
1>"
1g"
#24000
0!"
0z!
0&"
1+"
0d"
0e
0u!
0k!
b1111000011000000 "
0!
0h"
0L"
0K"
0>"
0g"
#25000
1&"
1d"
1p!
b1111000011010001 "
1!
1h"
1L"
1K"
1>"
1g"
#26000
1!"
0&"
0d"
0`
b1110000011010010 "
0!
0h"
0L"
0K"
0>"
0g"
#27000
1z!
1&"
1t
1d"
b1110000111010111 "
1!
1c"
1h"
1<!
1;!
1.!
1L"
1K"
1>"
1g"
#28000
0!"
0&"
0f!
0d"
0[
1u!
b1100000110011100 "
0!
0h"
0L"
0K"
0>"
0g"
#29000
1&"
1d"
b1100000110011101 "
1!
1h"
1L"
1K"
1>"
1g"
#30000
1!"
0z!
0&"
1o
0d"
0V
0p!
1k!
b1000001110101010 "
0!
0h"
0L"
0K"
0>"
0g"
#31000
1&"
1d"
b1000001110101011 "
1!
1h"
1L"
1K"
1>"
1g"
#32000
0!"
0&"
0+"
0d"
0y
0u!
b1100100000 "
0!
0h"
0L"
0K"
0>"
0g"
#33000
1z!
1&"
1j
1d"
b11100100101 "
1!
1h"
1L"
1K"
1>"
1g"
#34000
1!"
0&"
0d"
0V"
b11100100110 "
b1110 #
0!
0c"
0h"
0<!
1E!
0;!
0.!
0L"
1U"
0K"
0>"
0g"
#35000
1&"
1f!
1p!
b11101110111 "
#36000
0!"
0z!
0&"
0t
0X"
1d"
1e
1u!
0k!
b111001011000 "
b1100 #
1!
1?!
1c"
1h"
1>!
1=!
1G!
1;!
1.!
1O"
1W"
1K"
1>"
1g"
#37000
1&"
b111001011001 "
#38000
1!"
0&"
0Z"
0d"
b111001011010 "
b1000 #
0!
0?!
0c"
0h"
0>!
0=!
1I!
0;!
0.!
0O"
1Y"
0K"
0>"
0g"
#39000
1z!
1&"
1`
b1111001011111 "
#40000
0!"
0&"
1+"
0o
0i"
0u!
0p!
b1110011000100 "
b0 #
1h"
1T"
1P"
1>"
#41000
1&"
b1110011000101 "
#42000
1!"
0z!
0&"
0f!
1[
1k!
b11110010100010 "
#43000
1&"
b11110010100011 "
#44000
0!"
0&"
0j
1u!
b11100010101000 "
#45000
1z!
1&"
1t
1V
1p!
b111100110111101 "
#46000
1!"
0&"
b111100110111110 "
#47000
1&"
b111100110111111 "
#48000
0!"
0z!
0&"
0+"
1d"
0e
1y
0u!
0k!
b1111000100010000 "
1!
1c"
0h"
1D!
1@!
1.!
0T"
0P"
0>"
1f"
#49000
1&"
1f!
b1111000101010001 "
#50000
1!"
0&"
1o
0p!
b1111001101000010 "
#51000
1z!
1&"
1V"
b1111001101000111 "
b1 #
1h"
0D!
1C!
0E!
1S"
0U"
1P"
1>"
#52000
0!"
0&"
0`
1u!
b1110001101001100 "
#53000
1&"
b1110001101001101 "
#54000
1!"
0z!
0&"
0t
1X"
0d"
1k!
b1110001001101010 "
b11 #
0!
0c"
0h"
0C!
0G!
0@!
0.!
0S"
0W"
0P"
0>"
0f"
#55000
1&"
1j
1p!
b1110011001111011 "
1h"
1Q"
1P"
1>"
#56000
0!"
0&"
0f!
1+"
0[
0u!
b1100011010110000 "
#57000
1z!
1&"
1Z"
b1100011010110101 "
b111 #
0I!
0Q"
1L"
0Y"
1K"
0P"
#58000
1!"
0&"
b1100011010110110 "
0h"
0L"
0K"
0>"
#59000
1&"
b1100011010110111 "
1h"
1L"
1K"
1>"
#60000
0!"
0z!
0&"
0o
1i"
0d"
1e
0V
1u!
0p!
0k!
b1000110010001000 "
b1111 #
0!
0h"
0L"
0K"
0>"
0g"
#61000
1&"
1d"
b1000110010001001 "
1!
1h"
1L"
1K"
1>"
1g"
#62000
1!"
0&"
0d"
b1000110010001010 "
0!
0h"
0L"
0K"
0>"
0g"
#63000
1z!
1&"
1f!
1t
1d"
b1000110111001111 "
1!
1c"
1h"
1<!
1;!
1.!
1L"
1K"
1>"
1g"
#64000
0!"
0&"
0+"
0d"
0y
0u!
b110101000100 "
0!
0h"
0L"
0K"
0>"
0g"
#65000
1&"
1d"
1`
1p!
b1110101010101 "
1!
1h"
1L"
1K"
1>"
1g"
#66000
1!"
0z!
0&"
0j
0d"
1k!
b1100101110010 "
0!
0h"
0L"
0K"
0>"
0g"
#67000
1&"
1d"
b1100101110011 "
1!
1h"
1L"
1K"
1>"
1g"
#68000
0!"
0&"
0d"
0V"
1u!
b1100101111000 "
b1110 #
0!
0c"
0h"
0<!
1E!
0;!
0.!
0L"
1U"
0K"
0>"
0g"
#69000
1z!
1&"
b1100101111101 "
#70000
1!"
0&"
0f!
1o
1[
0p!
b11101100101110 "
#71000
1&"
b11101100101111 "
#72000
0!"
0z!
0&"
1+"
0t
0X"
0e
0u!
0k!
b11001010000000 "
b1100 #
1c"
1=!
1G!
1;!
1.!
1W"
#73000
1&"
b11001010000001 "
#74000
1!"
0&"
1d"
b11001010000010 "
1!
1h"
1M"
1K"
1>"
1g"
#75000
1z!
1&"
1V
1p!
b111001010010111 "
1N"
#76000
0!"
0&"
0Z"
1d"
1u!
b111001010011100 "
b1000 #
1!
0c"
1h"
0=!
1I!
0;!
0.!
1T"
0N"
0M"
1Y"
0K"
1P"
1>"
1g"
#77000
1&"
1f!
1j
b111011011011101 "
#78000
1!"
0z!
0&"
0`
1k!
b110011011111010 "
#79000
1&"
b110011011111011 "
#80000
0!"
0&"
0+"
0o
0i"
1d"
1y
0u!
0p!
b1110010001100000 "
b0 #
1!
1c"
0h"
1D!
1@!
1.!
0T"
0P"
0>"
1f"
0g"
#81000
1z!
1&"
1t
b1110010101100101 "
#82000
1!"
0&"
b1110010101100110 "
#83000
1&"
b1110010101100111 "
#84000
0!"
0z!
0&"
0f!
1e
0[
1u!
0k!
b1100110100001000 "
#85000
1&"
1V"
1p!
b1100110100011001 "
b1 #
0D!
1C!
0E!
0U"
#86000
1!"
0&"
b1100110100011010 "
#87000
1z!
1&"
b1100110100011111 "
#88000
0!"
0&"
1+"
0j
0u!
b1100100110010100 "
#89000
1&"
b1100100110010101 "
#90000
1!"
0z!
0&"
0t
1o
1X"
0d"
0V
0p!
1k!
b1000101010100010 "
b11 #
0!
0c"
0C!
0G!
0@!
0.!
0W"
0f"
#91000
1&"
1f!
1d"
1`
b1001101011100011 "
1!
1c"
1A!
1@!
1.!
1f"
#92000
0!"
0&"
1u!
b1001101011101000 "
#93000
1z!
1&"
b1001101011101101 "
#94000
1!"
0&"
b1001101011101110 "
#95000
1&"
1Z"
0d"
1p!
b1001101011111111 "
b111 #
0!
0c"
1h"
0A!
0I!
0@!
0.!
0Q"
1L"
0Y"
1K"
0P"
1>"
0f"
#96000
0!"
0z!
0&"
0+"
0e
0y
0u!
0k!
b1001001010000 "
0h"
0L"
0K"
0>"
#97000
1&"
b1001001010001 "
1h"
1L"
1K"
1>"
#98000
1!"
0&"
0f!
1[
b11001000010010 "
0h"
0L"
0K"
0>"
#99000
1z!
1&"
1t
1j
1d"
b11011100010111 "
1!
1c"
1h"
1<!
1;!
1.!
1L"
1K"
1>"
1f"
#100000
0!"
0&"
0o
1i"
0d"
1u!
0p!
b11010100001100 "
b1111 #
0!
0h"
0L"
0K"
0>"
0f"
0g"
#101000
1&"
1d"
b11010100001101 "
1!
1h"
1L"
1K"
1>"
1g"
#102000
1!"
0z!
0&"
0d"
0V"
1k!
b11010100101010 "
b1110 #
0!
0c"
0h"
0<!
1E!
0;!
0.!
0L"
1U"
0K"
0>"
0g"
#103000
1&"
b11010100101011 "
#104000
0!"
0&"
1+"
0`
0u!
b10010110100000 "
#105000
1z!
1&"
1f!
1V
1p!
b110010111110101 "
#106000
1!"
0&"
b110010111110110 "
#107000
1&"
b110010111110111 "
#108000
0!"
0z!
0&"
0t
0X"
1d"
1e
1u!
0k!
b110110011011000 "
b1100 #
1!
1?!
1c"
1h"
1>!
1G!
1;!
1.!
1O"
1W"
1K"
1>"
1g"
#109000
1&"
b110110011011001 "
#110000
1!"
0&"
1o
0j
0p!
b110101011001010 "
0>!
1=!
1M"
#111000
1z!
1&"
b110101011001111 "
1N"
#112000
0!"
0&"
0f!
0+"
0[
1y
0u!
b1100101000000100 "
0O"
0M"
#113000
1&"
b1100101000000101 "
#114000
1!"
0z!
0&"
0Z"
0d"
1k!
b1100101000100010 "
b1000 #
0!
0?!
1c"
0h"
1D!
0=!
1I!
0;!
1@!
1.!
0N"
1Y"
0K"
0>"
0g"
#115000
1&"
1p!
b1100101000110011 "
#116000
0!"
0&"
1u!
b1100101000111000 "
#117000
1z!
1&"
1t
1`
b1101101100111101 "
#118000
1!"
0&"
b1101101100111110 "
#119000
1&"
1f!
1d"
1V"
b1101101101111111 "
b1001 #
1!
1h"
0D!
1C!
0E!
1S"
0U"
1P"
1>"
1g"
#120000
0!"
0z!
0&"
1+"
0o
0i"
0d"
0e
0V
0u!
0p!
0k!
b1001000111000000 "
b1 #
0!
0c"
0C!
0@!
0.!
0f"
0g"
#121000
1&"
1j
b1001010111000001 "
#122000
1!"
0&"
b1001010111000010 "
#123000
1z!
1&"
b1001010111000111 "
#124000
0!"
0&"
1u!
b1001010111001100 "
#125000
1&"
1p!
b1001010111011101 "
#126000
1!"
0z!
0&"
0f!
0t
1X"
1d"
1[
1k!
b1011010010111010 "
b11 #
1!
1c"
1A!
0G!
1@!
1.!
0S"
1Q"
0W"
1f"
#127000
1&"
b1011010010111011 "
#128000
0!"
0&"
0+"
0y
0u!
b11010000110000 "
#129000
1z!
1&"
b11010000110101 "
#130000
1!"
0&"
1o
0d"
0`
0p!
b10011000100110 "
0!
0c"
0h"
0A!
0@!
0.!
0Q"
0P"
0>"
0f"
#131000
1&"
b10011000100111 "
#132000
0!"
0z!
0&"
0j
1e
1u!
0k!
b10101000001000 "
#133000
1&"
1f!
1Z"
b10101001001001 "
b111 #
1h"
0I!
1L"
0Y"
1K"
1>"
#134000
1!"
0&"
b10101001001010 "
0h"
0L"
0K"
0>"
#135000
1z!
1&"
1t
1d"
1V
1p!
b110101101011111 "
1!
1c"
1h"
1<!
1;!
1.!
1L"
1K"
1>"
1f"
#136000
0!"
0&"
1+"
0d"
0V"
0u!
b110101111010100 "
b110 #
0!
0c"
0h"
0<!
1E!
0;!
0.!
0L"
1U"
0K"
0>"
0f"
#137000
1&"
b110101111010101 "
#138000
1!"
0z!
0&"
1k!
b110101111110010 "
#139000
1&"
b110101111110011 "
#140000
0!"
0&"
0f!
0o
1i"
0[
1u!
0p!
b100100110101000 "
b1110 #
#141000
1z!
1&"
b100100110101101 "
#142000
1!"
0&"
b100100110101110 "
#143000
1&"
1j
1`
b101110110101111 "
#144000
0!"
0z!
0&"
0+"
0t
0X"
0e
1y
0u!
0k!
b1101010000000000 "
b1100 #
1c"
1>!
1G!
1;!
1.!
1W"
#145000
1&"
1p!
b1101010000010001 "
#146000
1!"
0&"
1d"
b1101010000010010 "
1!
1h"
1M"
1K"
1>"
1g"
#147000
1z!
1&"
1f!
b1101010001010111 "
1N"
#148000
0!"
0&"
1u!
b1101010001011100 "
1O"
0M"
#149000
1&"
b1101010001011101 "
#150000
1!"
0z!
0&"
1o
0V
0p!
1k!
b1001011001101010 "
1=!
0N"
1M"
#151000
1&"
b1001011001101011 "
#152000
0!"
0&"
1+"
0Z"
1d"
0u!
b1001011011100000 "
b1000 #
1!
1c"
1h"
1D!
0>!
0=!
1I!
0;!
1@!
1.!
1T"
0O"
0M"
1Y"
0K"
1P"
1>"
1g"
#153000
1z!
1&"
1t
1V"
b1001011111100101 "
b1001 #
0c"
0D!
0E!
0@!
0.!
0T"
1S"
0U"
#154000
1!"
0&"
0f!
0j
0d"
1[
b1011001110100110 "
0!
0h"
0S"
0P"
0>"
0g"
#155000
1&"
1p!
b1011001110110111 "
#156000
0!"
0z!
0&"
1e
0`
1u!
0k!
b1010101110011000 "
#157000
1&"
b1010101110011001 "
#158000
1!"
0&"
b1010101110011010 "
#159000
1z!
1&"
b1010101110011111 "
#160000
0!"
0&"
0+"
0o
0i"
0y
0u!
0p!
b10100100000100 "
b1 #
#161000
1&"
1f!
b10100101000101 "
1h"
1S"
1P"
1>"
#162000
1!"
0z!
0&"
0t
1X"
1k!
b10100001100010 "
b11 #
0h"
0G!
0S"
0W"
0P"
0>"
#163000
1&"
b10100001100011 "
#164000
0!"
0&"
1u!
b10100001101000 "
#165000
1z!
1&"
1j
1V
1p!
b110110001111101 "
1h"
1Q"
1P"
1>"
#166000
1!"
0&"
b110110001111110 "
#167000
1&"
b110110001111111 "
#168000
0!"
0z!
0&"
0f!
1+"
0e
0[
0u!
0k!
b100010010010000 "
#169000
1&"
1d"
1`
b101010010010001 "
1!
1c"
1A!
1@!
1.!
1f"
#170000
1!"
0&"
1o
0d"
0V"
0p!
b101011010000010 "
b10 #
0!
0c"
0h"
0A!
1E!
0@!
0.!
0Q"
1U"
0P"
0>"
0f"
#171000
1z!
1&"
1t
1Z"
b101011110000111 "
b110 #
0I!
0Y"
#172000
0!"
0&"
1u!
b101011110001100 "
#173000
1&"
b101011110001101 "
#174000
1!"
0z!
0&"
1k!
b101011110101010 "
#175000
1&"
1f!
1p!
b101011111111011 "
#176000
0!"
0&"
0+"
0j
1y
0u!
b1101001101110000 "
#177000
1z!
1&"
b1101001101110101 "
#178000
1!"
0&"
b1101001101110110 "
#179000
1&"
b1101001101110111 "
#180000
0!"
0z!
0&"
0t
0o
0X"
1i"
1d"
1e
0V
1u!
0p!
0k!
b1001100001001000 "
b1100 #
1!
1?!
1c"
1h"
1G!
1;!
1.!
1O"
1W"
1K"
1>"
1g"
#181000
1&"
b1001100001001001 "
#182000
1!"
0&"
0f!
0`
1[
b1010100000001010 "
1M"
#183000
1z!
1&"
b1010100000001111 "
1N"
#184000
0!"
0&"
1+"
0u!
b1010100010000100 "
0O"
0M"
#185000
1&"
1p!
b1010100010010101 "
#186000
1!"
0z!
0&"
1k!
b1010100010110010 "
0N"
1M"
#187000
1&"
1j
0d"
1V"
b1010110010110011 "
b1101 #
0!
0?!
0c"
0h"
0>!
0E!
0;!
0.!
0M"
0U"
0K"
0>"
0g"
#188000
0!"
0&"
1u!
b1010110010111000 "
#189000
1z!
1&"
1f!
1t
b1010110111111101 "
#190000
1!"
0&"
1o
0Z"
1d"
0p!
b1010111111101110 "
b1001 #
1!
1h"
1I!
1S"
1Y"
1P"
1>"
1g"
#191000
1&"
b1010111111101111 "
#192000
0!"
0z!
0&"
0+"
0e
0y
0u!
0k!
b10011101000000 "
#193000
1&"
b10011101000001 "
#194000
1!"
0&"
b10011101000010 "
#195000
1z!
1&"
1`
1V
1p!
b111011101010111 "
1c"
1C!
1@!
1.!
#196000
0!"
0&"
0f!
0d"
0[
1u!
b101011100011100 "
0!
0h"
0S"
0P"
0>"
0g"
#197000
1&"
b101011100011101 "
#198000
1!"
0z!
0&"
0t
0j
1X"
1d"
1k!
b101001000111010 "
b1011 #
1!
1h"
0C!
1A!
0G!
1Q"
0W"
1P"
1>"
1g"
#199000
1&"
b101001000111011 "
#200000
0!"
0&"
1+"
0o
0i"
0u!
0p!
b101000010100000 "
b11 #
0h"
0Q"
0P"
0>"
1f"
0g"
#201000
1z!
1&"
b101000010100101 "
#202000
1!"
0&"
b101000010100110 "
#203000
1&"
1f!
b101000011100111 "
#204000
0!"
0z!
0&"
0d"
1e
0V"
1u!
0k!
b101100011001000 "
b10 #
0!
0c"
0A!
1E!
0@!
0.!
1U"
0f"
#205000
1&"
1p!
b101100011011001 "
#206000
1!"
0&"
b101100011011010 "
#207000
1z!
1&"
1t
b101100111011111 "
#208000
0!"
0&"
0+"
0`
1y
0u!
b1100100101010100 "
#209000
1&"
1j
1Z"
b1100110101010101 "
b110 #
0I!
0Y"
#210000
1!"
0z!
0&"
0f!
1o
1[
0V
0p!
1k!
b1010111100100010 "
#211000
1&"
b1010111100100011 "
#212000
0!"
0&"
1u!
b1010111100101000 "
#213000
1z!
1&"
b1010111100101101 "
#214000
1!"
0&"
b1010111100101110 "
#215000
1&"
1p!
b1010111100111111 "
#216000
0!"
0z!
0&"
1+"
0t
0X"
1d"
0e
0u!
0k!
b1010011010010000 "
b100 #
1!
1c"
1>!
1=!
1G!
1;!
1.!
1W"
1f"
#217000
1&"
1f!
b1010011011010001 "
#218000
1!"
0&"
b1010011011010010 "
1h"
1M"
1K"
1>"
#219000
1z!
1&"
b1010011011010111 "
1N"
#220000
0!"
0&"
0o
0j
1i"
1u!
0p!
b1010000011001100 "
b1100 #
0c"
0>!
0=!
0;!
0.!
1O"
0M"
0f"
1g"
#221000
1&"
0d"
1`
1V"
b1011000011001101 "
b1101 #
0!
0h"
0E!
0O"
0N"
0U"
0K"
0>"
0g"
#222000
1!"
0z!
0&"
1k!
b1011000011101010 "
#223000
1&"
b1011000011101011 "
#224000
0!"
0&"
0f!
0+"
0[
0y
0u!
b1000000100000 "
#225000
1z!
1&"
1t
1V
1p!
b101000100110101 "
#226000
1!"
0&"
b101000100110110 "
#227000
1&"
b101000100110111 "
#228000
0!"
0z!
0&"
0Z"
1e
1u!
0k!
b101100100011000 "
b1001 #
1c"
1C!
1I!
1@!
1.!
1Y"
#229000
1&"
b101100100011001 "
#230000
1!"
0&"
1o
0p!
b101101100001010 "
#231000
1z!
1&"
1f!
1j
1d"
b101111101001111 "
1!
1h"
1S"
1P"
1>"
1g"
#232000
0!"
0&"
1+"
0u!
b101111111000100 "
#233000
1&"
b101111111000101 "
#234000
1!"
0z!
0&"
0t
1X"
0d"
0`
1k!
b100111011100010 "
b1011 #
0!
0c"
0h"
0C!
0G!
0@!
0.!
0S"
0W"
0P"
0>"
0g"
#235000
1&"
1d"
1p!
b100111011110011 "
1!
1h"
1Q"
1P"
1>"
1g"
#236000
0!"
0&"
1u!
b100111011111000 "
#237000
1z!
1&"
b100111011111101 "
