Eight-Register_Register_File/mux8to1.vcd
$date
   Fri Oct 20 11:04:48 2023
$end
$version
  P.20131013
$end
$timescale
  1ps
$end
$scope module mux8to1_tb $end
$var wire 1 ! Y $end
$var reg 8 " A [7:0] $end
$var reg 3 # S [2:0] $end
$scope module UUT $end
$var wire 1 x s0 $end
$var wire 1 ~ s1 $end
$var wire 1 &! s2 $end
$var wire 1 [! y $end
$var wire 1 ,! a0 $end
$var wire 1 2! a1 $end
$var wire 1 8! a2 $end
$var wire 1 >! a3 $end
$var wire 1 D! a4 $end
$var wire 1 J! a5 $end
$var wire 1 P! a6 $end
$var wire 1 V! a7 $end
$var wire 1 E" xlxn_4_0 $end
$var wire 1 B" xlxn_3_0 $end
$var wire 1 C" xlxn_2_0 $end
$var wire 1 D" xlxn_1_0 $end
$var wire 1 o! xlxn_8_0 $end
$var wire 1 !" xlxn_7_0 $end
$var wire 1 1" xlxn_6_0 $end
$var wire 1 4" xlxn_5_0 $end
$var wire 1 o xlxi_24_s1_0 $end
$var wire 1 p xlxi_24_s0_0 $end
$var wire 1 k" s0_ibuf_100 $end
$var wire 1 j" s1_ibuf_101 $end
$var wire 1 l" s2_ibuf_102 $end
$var wire 1 `" a0_ibuf_103 $end
$var wire 1 m" a1_ibuf_104 $end
$var wire 1 N" a2_ibuf_105 $end
$var wire 1 9" a3_ibuf_106 $end
$var wire 1 +" a4_ibuf_107 $end
$var wire 1 w! a5_ibuf_108 $end
$var wire 1 h! a6_ibuf_109 $end
$var wire 1 W" a7_ibuf_110 $end
$var wire 1 A" xlxi_24_s1 $end
$var wire 1 c xlxi_24_s0 $end
$var wire 1 t" y_obuf_144 $end
$var wire 1 { s0_inbuf $end
$var wire 1 #! s1_inbuf $end
$var wire 1 )! s2_inbuf $end
$var wire 1 /! a0_inbuf $end
$var wire 1 5! a1_inbuf $end
$var wire 1 ;! a2_inbuf $end
$var wire 1 A! a3_inbuf $end
$var wire 1 G! a4_inbuf $end
$var wire 1 M! a5_inbuf $end
$var wire 1 S! a6_inbuf $end
$var wire 1 Y! a7_inbuf $end
$var wire 1 s" y_o $end
$var wire 1 U" xlxn_1 $end
$var wire 1 e! xlxn_2 $end
$var wire 1 _" xlxn_8 $end
$var wire 1 u! xlxn_3 $end
$var wire 1 i" xlxn_7 $end
$var wire 1 '" xlxn_4 $end
$var wire 1 K" xlxn_6 $end
$var wire 1 7" xlxn_5 $end
$var wire 1 v" vcc $end
$scope module XLXI_24_S1_XUSED $end
$var wire 1 o o $end
$var wire 1 A" i $end
$var wire 1 _ i_ipd $end
$scope begin wiredelay $end
$upscope $end
$upscope $end
$scope module XLXI_24_S1_YUSED $end
$var wire 1 p o $end
$var wire 1 c i $end
$var wire 1 b i_ipd $end
$scope begin wiredelay $end
$upscope $end
$upscope $end
$scope module XLXI_24_I_36_112 $end
$var wire 1 c o $end
$var wire 1 4" adr0 $end
$var wire 1 1" adr1 $end
$var wire 1 !" adr2 $end
$var wire 1 o! adr3 $end
$var wire 1 h adr0_ipd $end
$var wire 1 i adr1_ipd $end
$var wire 1 j adr2_ipd $end
$var wire 1 k adr3_ipd $end
$var wire 1 l o_zd $end
$scope begin wiredelay $end
$upscope $end
$upscope $end
$scope module XLXI_24_I_36_94 $end
$var wire 1 t" o $end
$var wire 1 v" adr0 $end
$var wire 1 o adr1 $end
$var wire 1 p adr2 $end
$var wire 1 v" adr3 $end
$var wire 1 r adr0_ipd $end
$var wire 1 s adr1_ipd $end
$var wire 1 t adr2_ipd $end
$var wire 1 u adr3_ipd $end
$var wire 1 v o_zd $end
$scope begin wiredelay $end
$upscope $end
$upscope $end
$scope module S0_IBUF $end
$var wire 1 { o $end
$var wire 1 x i $end
$var wire 1 y i_ipd $end
$scope begin wiredelay $end
$upscope $end
$upscope $end
$scope module S0_IFF_IMUX $end
$var wire 1 k" o $end
$var wire 1 { i $end
$var wire 1 | i_ipd $end
$scope begin wiredelay $end
$upscope $end
$upscope $end
$scope module S1_IBUF $end
$var wire 1 #! o $end
$var wire 1 ~ i $end
$var wire 1 !! i_ipd $end
$scope begin wiredelay $end
$upscope $end
$upscope $end
$scope module S1_IFF_IMUX $end
$var wire 1 j" o $end
$var wire 1 #! i $end
$var wire 1 $! i_ipd $end
$scope begin wiredelay $end
$upscope $end
$upscope $end
$scope module S2_IBUF $end
$var wire 1 )! o $end
$var wire 1 &! i $end
$var wire 1 '! i_ipd $end
$scope begin wiredelay $end
$upscope $end
$upscope $end
$scope module S2_IFF_IMUX $end
$var wire 1 l" o $end
$var wire 1 )! i $end
$var wire 1 *! i_ipd $end
$scope begin wiredelay $end
$upscope $end
$upscope $end
$scope module A0_IBUF $end
$var wire 1 /! o $end
$var wire 1 ,! i $end
$var wire 1 -! i_ipd $end
$scope begin wiredelay $end
$upscope $end
$upscope $end
$scope module A0_IFF_IMUX $end
$var wire 1 `" o $end
$var wire 1 /! i $end
$var wire 1 0! i_ipd $end
$scope begin wiredelay $end
$upscope $end
$upscope $end
$scope module A1_IBUF $end
$var wire 1 5! o $end
$var wire 1 2! i $end
$var wire 1 3! i_ipd $end
$scope begin wiredelay $end
$upscope $end
$upscope $end
$scope module A1_IFF_IMUX $end
$var wire 1 m" o $end
$var wire 1 5! i $end
$var wire 1 6! i_ipd $end
$scope begin wiredelay $end
$upscope $end
$upscope $end
$scope module A2_IBUF $end
$var wire 1 ;! o $end
$var wire 1 8! i $end
$var wire 1 9! i_ipd $end
$scope begin wiredelay $end
$upscope $end
$upscope $end
$scope module A2_IFF_IMUX $end
$var wire 1 N" o $end
$var wire 1 ;! i $end
$var wire 1 <! i_ipd $end
$scope begin wiredelay $end
$upscope $end
$upscope $end
$scope module A3_IBUF $end
$var wire 1 A! o $end
$var wire 1 >! i $end
$var wire 1 ?! i_ipd $end
$scope begin wiredelay $end
$upscope $end
$upscope $end
$scope module A3_IFF_IMUX $end
$var wire 1 9" o $end
$var wire 1 A! i $end
$var wire 1 B! i_ipd $end
$scope begin wiredelay $end
$upscope $end
$upscope $end
$scope module A4_IBUF $end
$var wire 1 G! o $end
$var wire 1 D! i $end
$var wire 1 E! i_ipd $end
$scope begin wiredelay $end
$upscope $end
$upscope $end
$scope module A4_IFF_IMUX $end
$var wire 1 +" o $end
$var wire 1 G! i $end
$var wire 1 H! i_ipd $end
$scope begin wiredelay $end
$upscope $end
$upscope $end
$scope module A5_IBUF $end
$var wire 1 M! o $end
$var wire 1 J! i $end
$var wire 1 K! i_ipd $end
$scope begin wiredelay $end
$upscope $end
$upscope $end
$scope module A5_IFF_IMUX $end
$var wire 1 w! o $end
$var wire 1 M! i $end
$var wire 1 N! i_ipd $end
$scope begin wiredelay $end
$upscope $end
$upscope $end
$scope module A6_IBUF $end
$var wire 1 S! o $end
$var wire 1 P! i $end
$var wire 1 Q! i_ipd $end
$scope begin wiredelay $end
$upscope $end
$upscope $end
$scope module A6_IFF_IMUX $end
$var wire 1 h! o $end
$var wire 1 S! i $end
$var wire 1 T! i_ipd $end
$scope begin wiredelay $end
$upscope $end
$upscope $end
$scope module A7_IBUF $end
$var wire 1 Y! o $end
$var wire 1 V! i $end
$var wire 1 W! i_ipd $end
$scope begin wiredelay $end
$upscope $end
$upscope $end
$scope module A7_IFF_IMUX $end
$var wire 1 W" o $end
$var wire 1 Y! i $end
$var wire 1 Z! i_ipd $end
$scope begin wiredelay $end
$upscope $end
$upscope $end
$scope module Y_OBUF $end
$var wire 1 [! o $end
$var wire 1 s" i $end
$var wire 1 ]! gts_resolved $end
$var wire 1 ^! i_ipd $end
$scope begin wiredelay $end
$upscope $end
$upscope $end
$scope module XLXN_1_XUSED $end
$var wire 1 D" o $end
$var wire 1 U" i $end
$var wire 1 a! i_ipd $end
$scope begin wiredelay $end
$upscope $end
$upscope $end
$scope module XLXN_1_YUSED $end
$var wire 1 C" o $end
$var wire 1 e! i $end
$var wire 1 d! i_ipd $end
$scope begin wiredelay $end
$upscope $end
$upscope $end
$scope module XLXI_1 $end
$var wire 1 e! o $end
$var wire 1 k" adr0 $end
$var wire 1 j" adr1 $end
$var wire 1 h! adr2 $end
$var wire 1 l" adr3 $end
$var wire 1 j! adr0_ipd $end
$var wire 1 k! adr1_ipd $end
$var wire 1 l! adr2_ipd $end
$var wire 1 m! adr3_ipd $end
$var wire 1 n! o_zd $end
$scope begin wiredelay $end
$upscope $end
$upscope $end
$scope module XLXN_8_XUSED $end
$var wire 1 o! o $end
$var wire 1 _" i $end
$var wire 1 q! i_ipd $end
$scope begin wiredelay $end
$upscope $end
$upscope $end
$scope module XLXN_8_YUSED $end
$var wire 1 B" o $end
$var wire 1 u! i $end
$var wire 1 t! i_ipd $end
$scope begin wiredelay $end
$upscope $end
$upscope $end
$scope module XLXI_2 $end
$var wire 1 u! o $end
$var wire 1 j" adr0 $end
$var wire 1 w! adr1 $end
$var wire 1 k" adr2 $end
$var wire 1 l" adr3 $end
$var wire 1 z! adr0_ipd $end
$var wire 1 {! adr1_ipd $end
$var wire 1 |! adr2_ipd $end
$var wire 1 }! adr3_ipd $end
$var wire 1 ~! o_zd $end
$scope begin wiredelay $end
$upscope $end
$upscope $end
$scope module XLXN_7_XUSED $end
$var wire 1 !" o $end
$var wire 1 i" i $end
$var wire 1 #" i_ipd $end
$scope begin wiredelay $end
$upscope $end
$upscope $end
$scope module XLXN_7_YUSED $end
$var wire 1 E" o $end
$var wire 1 '" i $end
$var wire 1 &" i_ipd $end
$scope begin wiredelay $end
$upscope $end
$upscope $end
$scope module XLXI_3 $end
$var wire 1 '" o $end
$var wire 1 j" adr0 $end
$var wire 1 k" adr1 $end
$var wire 1 l" adr2 $end
$var wire 1 +" adr3 $end
$var wire 1 ," adr0_ipd $end
$var wire 1 -" adr1_ipd $end
$var wire 1 ." adr2_ipd $end
$var wire 1 /" adr3_ipd $end
$var wire 1 0" o_zd $end
$scope begin wiredelay $end
$upscope $end
$upscope $end
$scope module XLXN_6_XUSED $end
$var wire 1 1" o $end
$var wire 1 K" i $end
$var wire 1 3" i_ipd $end
$scope begin wiredelay $end
$upscope $end
$upscope $end
$scope module XLXN_6_YUSED $end
$var wire 1 4" o $end
$var wire 1 7" i $end
$var wire 1 6" i_ipd $end
$scope begin wiredelay $end
$upscope $end
$upscope $end
$scope module XLXI_4 $end
$var wire 1 7" o $end
$var wire 1 l" adr0 $end
$var wire 1 9" adr1 $end
$var wire 1 j" adr2 $end
$var wire 1 k" adr3 $end
$var wire 1 <" adr0_ipd $end
$var wire 1 =" adr1_ipd $end
$var wire 1 >" adr2_ipd $end
$var wire 1 ?" adr3_ipd $end
$var wire 1 @" o_zd $end
$scope begin wiredelay $end
$upscope $end
$upscope $end
$scope module XLXI_24_I_36_95 $end
$var wire 1 A" o $end
$var wire 1 B" adr0 $end
$var wire 1 C" adr1 $end
$var wire 1 D" adr2 $end
$var wire 1 E" adr3 $end
$var wire 1 F" adr0_ipd $end
$var wire 1 G" adr1_ipd $end
$var wire 1 H" adr2_ipd $end
$var wire 1 I" adr3_ipd $end
$var wire 1 J" o_zd $end
$scope begin wiredelay $end
$upscope $end
$upscope $end
$scope module XLXI_5 $end
$var wire 1 K" o $end
$var wire 1 l" adr0 $end
$var wire 1 j" adr1 $end
$var wire 1 N" adr2 $end
$var wire 1 k" adr3 $end
$var wire 1 P" adr0_ipd $end
$var wire 1 Q" adr1_ipd $end
$var wire 1 R" adr2_ipd $end
$var wire 1 S" adr3_ipd $end
$var wire 1 T" o_zd $end
$scope begin wiredelay $end
$upscope $end
$upscope $end
$scope module XLXI_8 $end
$var wire 1 U" o $end
$var wire 1 j" adr0 $end
$var wire 1 W" adr1 $end
$var wire 1 k" adr2 $end
$var wire 1 l" adr3 $end
$var wire 1 Z" adr0_ipd $end
$var wire 1 [" adr1_ipd $end
$var wire 1 \" adr2_ipd $end
$var wire 1 ]" adr3_ipd $end
$var wire 1 ^" o_zd $end
$scope begin wiredelay $end
$upscope $end
$upscope $end
$scope module XLXI_7 $end
$var wire 1 _" o $end
$var wire 1 `" adr0 $end
$var wire 1 j" adr1 $end
$var wire 1 k" adr2 $end
$var wire 1 l" adr3 $end
$var wire 1 d" adr0_ipd $end
$var wire 1 e" adr1_ipd $end
$var wire 1 f" adr2_ipd $end
$var wire 1 g" adr3_ipd $end
$var wire 1 h" o_zd $end
$scope begin wiredelay $end
$upscope $end
$upscope $end
$scope module XLXI_6 $end
$var wire 1 i" o $end
$var wire 1 j" adr0 $end
$var wire 1 k" adr1 $end
$var wire 1 l" adr2 $end
$var wire 1 m" adr3 $end
$var wire 1 n" adr0_ipd $end
$var wire 1 o" adr1_ipd $end
$var wire 1 p" adr2_ipd $end
$var wire 1 q" adr3_ipd $end
$var wire 1 r" o_zd $end
$scope begin wiredelay $end
$upscope $end
$upscope $end
$scope module Y_OUTPUT_OFF_OMUX $end
$var wire 1 s" o $end
$var wire 1 t" i $end
$var wire 1 u" i_ipd $end
$scope begin wiredelay $end
$upscope $end
$upscope $end
$scope module NlwBlock_mux8to1_VCC $end
$var wire 1 v" o $end
$upscope $end
$scope module NlwBlockROC $end
$var wire 1 w" o $end
$upscope $end
$scope module NlwBlockTOC $end
$var wire 1 x" o $end
$upscope $end
$upscope $end
$upscope $end
$enddefinitions $end
#0
$dumpvars
x[!
0,!
0~
0x
0&!
02!
08!
0>!
0D!
0J!
0P!
0V!
1w"
0x"
x4"
b0 "
b0 #
x!
x/!
xE"
xB"
xC"
xD"
xo!
x!"
x1"
xu!
xi"
xo
xp
xk"
xj"
xl"
x`"
xm"
xN"
x9"
x+"
xw!
xh!
xW"
xA"
xc
xt"
x{
x#!
x)!
0-!
x5!
x;!
xA!
xG!
xM!
xS!
xY!
xs"
xU"
xe!
x_"
x'"
xK"
x7"
1v"
x_
xb
xh
xi
xj
xk
xl
1r
xs
xt
1u
xv
0y
x|
0!!
x$!
0'!
x*!
xP"
xQ"
x0!
03!
x6!
09!
x<!
0?!
xB!
0E!
xH!
0K!
xN!
0Q!
xT!
0W!
xZ!
0]!
x^!
xa!
xd!
xj!
xk!
xl!
xm!
xn!
xq!
xt!
xz!
x{!
x|!
x}!
x~!
x#"
x&"
x,"
x-"
x."
x/"
x0"
x3"
x6"
x<"
x="
x>"
x?"
x@"
xF"
xG"
xH"
xI"
xJ"
xR"
xS"
xT"
xZ"
x["
x\"
x]"
x^"
xd"
xe"
xf"
xg"
xh"
xn"
xo"
xp"
xq"
xr"
xu"
$end
#24
xk
#55
xt
#75
xs
#100
0/!
0{
0#!
0)!
05!
0;!
0A!
0G!
0M!
0S!
0Y!
0|
0$!
0*!
00!
06!
0<!
0B!
0H!
0N!
0T!
0Z!
#156
xF"
#326
x/"
#343
xj
#347
xG"
#349
xH"
xI"
#364
xi
#376
x="
#412
x{!
#519
xh
#559
xt"
xu"
#563
xl!
#564
xR"
#567
xq"
#599
x^!
#712
xd"
#803
xn"
#835
x\"
#844
x,"
#847
x["
#1000
1,!
b1 "
1-!
#1045
x]"
#1100
1/!
10!
#1108
x|!
xf"
#1110
xm!
#1170
x-"
#1178
xP"
#1194
xo"
#1219
x<"
#1299
0k"
0j"
0l"
0`"
0m"
0N"
09"
0+"
0w!
0h!
0W"
#1303
xe"
#1312
xg"
#1324
xQ"
#1377
x}!
#1494
xS"
#1497
x?"
#1595
xj!
#1619
xz!
#1625
0/"
00"
#1632
x>"
#1675
0="
0@"
#1687
xk!
#1711
0{!
0~!
#1792
xp"
#1826
x."
#1862
0l!
0n!
#1863
0R"
0T"
#1866
0q"
0r"
#1988
xZ"
#2000
0,!
12!
b10 "
0-!
13!
#2011
0d"
0h"
#2100
0/!
15!
00!
16!
#2102
0n"
#2134
0\"
#2143
0,"
#2146
0["
0^"
#2184
0'"
0&"
#2234
07"
06"
#2270
0u!
0t!
#2299
1`"
#2329
0E"
#2344
0]"
#2379
04"
#2407
0|!
0f"
#2409
0m!
#2421
0e!
0d!
#2422
0K"
03"
#2425
0i"
0#"
#2469
0-"
#2470
0B"
#2477
0P"
#2493
0o"
#2518
0<"
#2567
01"
#2570
0!"
0_"
0q!
#2602
0e"
#2611
0g"
#2621
0C"
#2623
0Q"
#2626
0F"
#2667
x[!
#2676
0}!
#2678
0I"
#2705
0U"
0a!
#2770
0o!
#2793
0S"
#2794
0k
#2796
0?"
#2894
0j!
#2898
0h
#2905
0D"
#2913
0j
#2918
0z!
#2931
0i
0l
0>"
#2968
0G"
#2986
0k!
#3000
1,!
18!
b111 "
1-!
19!
#3011
1d"
#3091
0p"
#3100
1/!
1;!
10!
1<!
#3125
0."
#3254
0H"
0J"
#3287
0Z"
#3299
0`"
1m"
#3490
0c
0b
#3635
0p
#3690
0t
#3813
0A"
0_
#3866
1q"
#3958
0o
#4000
0,!
02!
1>!
b1100 "
0-!
03!
1?!
#4011
0d"
#4033
0s
0v
#4100
0/!
05!
1A!
00!
06!
1B!
#4299
1`"
1N"
#4592
0t"
0u"
#4863
1R"
#5000
1,!
1D!
b11101 "
1-!
1E!
#5011
1d"
#5100
1/!
1G!
10!
1H!
#5299
0`"
0m"
19"
#5675
1="
#5866
0q"
#6000
0,!
12!
08!
1J!
b111010 "
0-!
13!
09!
1K!
#6011
0d"
#6100
0/!
15!
0;!
1M!
00!
16!
0<!
1N!
#6140
0s"
#6299
1`"
1+"
#6625
1/"
#6739
0^!
#7000
1,!
1P!
b1111011 "
1-!
1Q!
#7011
1d"
#7100
1/!
1S!
10!
1T!
#7299
0`"
1m"
0N"
1w!
#7711
1{!
#7863
0R"
#7866
1q"
#8000
0,!
02!
0>!
1V!
b11110000 "
0-!
03!
0?!
1W!
#8011
0d"
#8100
0/!
05!
0A!
1Y!
00!
06!
0B!
1Z!
#8299
1`"
1h!
#8807
0[!
0!
#8862
1l!
#9000
1,!
1x
18!
b11110101 "
b1 #
1-!
1y
19!
#9011
1d"
#9100
1/!
1{
1;!
1|
10!
1<!
#9299
0`"
0m"
09"
1W"
#9675
0="
#9866
0q"
#10000
0,!
1~
12!
0D!
b11100110 "
b11 #
0-!
1!!
13!
0E!
#10011
0d"
#10100
0/!
1#!
15!
0G!
1$!
00!
16!
0H!
#10146
1["
1^"
#10299
1k"
1`"
1N"
#10705
1U"
1a!
#10863
1R"
#10905
1D"
#11000
1,!
1&!
b11100111 "
b111 #
1-!
1'!
#11011
1d"
#11100
1/!
1)!
1*!
10!
#11134
1\"
0^"
#11254
1H"
1J"
#11299
1j"
0`"
1m"
0+"
#11407
1|!
1f"
#11469
1-"
#11493
1o"
#11625
0/"
#11693
0U"
0a!
#11793
1S"
#11796
1?"
#11813
1A"
1_
#11866
1q"
#11893
0D"
#11894
1j!
1n!
#11958
1o
#12000
0,!
02!
08!
1>!
0J!
b11001000 "
0-!
03!
09!
1?!
0K!
#12011
0d"
#12033
1s
1v
#12100
0/!
05!
0;!
1A!
0M!
00!
06!
0<!
1B!
0N!
#12102
1n"
#12143
1,"
#12242
0H"
0J"
#12299
1l"
1`"
#12453
1e!
1d!
#12592
1t"
1u"
#12602
1e"
#12623
1Q"
#12653
1C"
#12801
0A"
0_
#12918
1z!
#12931
1>"
#12946
0o
#12986
1k!
0n!
#13000
1,!
b11001001 "
1-!
1G"
1J"
#13011
1d"
#13021
0s
0v
#13100
1/!
10!
#13287
1Z"
#13299
0`"
0m"
0N"
19"
0w!
#13344
1]"
#13409
1m!
#13477
1P"
#13518
1<"
#13545
0e!
0d!
#13559
1A"
1_
#13580
0t"
0u"
#13611
1g"
1h"
#13675
1="
#13676
1}!
#13704
1o
#13711
0{!
#13745
0C"
#13779
1s
1v
#13863
0R"
#13866
0q"
#14000
0,!
12!
0P!
b10001010 "
0-!
13!
0Q!
#14011
0d"
0h"
#14091
1p"
#14092
0G"
0J"
#14100
0/!
15!
0S!
00!
16!
0T!
#14125
1."
#14140
1s"
#14170
1_"
1q!
#14299
1`"
#14338
1t"
1u"
#14370
1o!
#14394
1k
1l
#14570
0_"
0q!
#14651
0A"
0_
#14739
1^!
#14770
0o!
#14794
0k
0l
#14796
0o
#14871
0s
0v
#14953
1c
1b
#15000
1,!
18!
1D!
b10011111 "
1-!
19!
1E!
#15011
1d"
1h"
#15098
1p
#15100
1/!
1;!
1G!
10!
1<!
1H!
#15153
1t
1v
#15299
0`"
1m"
0h!
#15353
0c
0b
#15430
0t"
0u"
#15498
0p
#15553
0t
0v
#15570
1_"
1q!
#15712
1t"
1u"
#15770
1o!
#15794
1k
1l
#15862
0l!
#15866
1q"
#16000
0,!
02!
0>!
0V!
b10100 "
0-!
03!
0?!
0W!
#16011
0d"
0h"
#16100
0/!
05!
0A!
0Y!
00!
06!
0B!
0Z!
#16112
0t"
0u"
#16299
1`"
1N"
1+"
#16353
1c
1b
#16498
1p
#16553
1t
1v
#16570
0_"
0q!
#16625
1/"
#16770
0o!
#16794
0k
0l
#16807
1[!
1!
#16863
1R"
#17000
1,!
b10101 "
1-!
#17011
1d"
1h"
#17100
1/!
10!
#17112
1t"
1u"
#17299
0`"
0m"
09"
0W"
#17353
0c
0b
#17498
0p
#17553
0t
0v
#17570
1_"
1q!
#17660
0s"
#17675
0="
#17770
1o!
#17794
1k
1l
#17866
0q"
#18000
0,!
0x
12!
08!
1J!
b110010 "
b110 #
0-!
0y
13!
09!
1K!
#18011
0d"
0h"
#18100
0/!
0{
15!
0;!
1M!
0|
00!
16!
0<!
1N!
#18112
0t"
0u"
#18146
0["
#18259
0^!
#18299
1`"
#18353
1c
1b
#18498
1p
#18553
1t
1v
#18570
0_"
0q!
#18660
1s"
#18770
0o!
#18794
0k
0l
#19000
1,!
b110011 "
1-!
#19011
1d"
1h"
#19100
1/!
10!
#19112
1t"
1u"
#19259
1^!
#19299
0k"
0`"
1m"
0N"
1w!
#19353
0c
0b
#19498
0p
#19553
0t
0v
#19570
1_"
1q!
#19660
0s"
#19711
1{!
#19770
1o!
#19794
1k
1l
#19863
0R"
#19866
1q"
#20000
0,!
0~
02!
1>!
0D!
b101000 "
b100 #
0-!
0!!
03!
1?!
0E!
#20011
0d"
0h"
#20100
0/!
0#!
05!
1A!
0G!
0$!
00!
06!
1B!
0H!
#20112
0t"
0u"
#20134
0\"
#20259
0^!
#20299
1`"
#20327
0[!
0!
#20353
1c
1b
#20407
0|!
0f"
#20469
0-"
#20493
0o"
#20498
1p
#20553
1t
1v
#20570
0_"
0q!
#20660
1s"
#20770
0o!
#20793
0S"
#20794
0k
0l
#20796
0?"
#20894
0j!
#21000
1,!
18!
1P!
b1101101 "
1-!
19!
1Q!
#21011
1d"
#21100
1/!
1;!
1S!
10!
1<!
1T!
#21112
1t"
1u"
#21259
1^!
#21299
0j"
0`"
0m"
19"
0+"
#21327
1[!
1!
#21353
0c
0b
#21498
0p
#21553
0t
0v
#21625
0/"
#21660
0s"
#21675
1="
#21866
0q"
#22000
0,!
0&!
12!
b1101110 "
b0 #
0-!
0'!
13!
#22011
0d"
#22100
0/!
0)!
15!
0*!
00!
16!
#22102
0n"
#22112
0t"
0u"
#22143
0,"
#22259
0^!
#22299
1`"
1N"
1h!
#22327
0[!
0!
#22602
0e"
#22623
0Q"
#22660
1s"
#22862
1l!
#22863
1R"
1T"
#22918
0z!
#22931
0>"
1@"
#22986
0k!
#23000
1,!
b1101111 "
1-!
#23011
1d"
#23100
1/!
10!
#23259
1^!
#23287
0Z"
#23299
0l"
0`"
1m"
#23327
1[!
1!
#23422
1K"
13"
#23490
17"
16"
#23567
11"
#23635
14"
#23660
0s"
#23866
1q"
1r"
#23931
1i
1l
#24000
0,!
02!
08!
0>!
0J!
1V!
b11000000 "
0-!
03!
09!
0?!
0K!
1W!
#24011
0d"
#24100
0/!
05!
0;!
0A!
0M!
1Y!
00!
06!
0<!
0B!
0N!
1Z!
#24154
1h
#24259
0^!
#24299
1`"
#24327
0[!
0!
#24344
0]"
#24409
0m!
#24425
1i"
1#"
#24477
0P"
0T"
#24490
1c
1b
#24518
0<"
0@"
#24570
1!"
#24611
0g"
#24635
1p
#24676
0}!
#24690
1t
1v
#24913
1j
#25000
1,!
1D!
b11010001 "
1-!
1E!
#25011
1d"
#25036
0K"
03"
#25077
07"
06"
#25091
0p"
0r"
#25100
1/!
1G!
10!
1H!
#25125
0."
#25181
01"
#25222
04"
#25249
1t"
1u"
#25299
0`"
0m"
0N"
09"
0w!
1W"
#25327
1[!
1!
#25545
0i
#25650
0i"
0#"
#25675
0="
#25711
0{!
#25741
0h
#25795
0!"
#25863
0R"
#25866
0q"
#26000
0,!
12!
b11010010 "
0-!
13!
#26011
0d"
#26100
0/!
15!
00!
16!
#26138
0j
0l
#26146
1["
1^"
#26299
1`"
1+"
#26327
0[!
0!
#26625
1/"
#26697
0c
0b
#26705
1U"
1a!
#26797
1s"
#26842
0p
#26897
0t
0v
#26905
1D"
#27000
1,!
1x
18!
b11010111 "
b1 #
1-!
1y
19!
#27011
1d"
#27100
1/!
1{
1;!
1|
10!
1<!
#27254
1H"
1J"
#27299
0`"
1m"
#27396
1^!
#27456
0t"
0u"
#27813
1A"
1_
#27866
1q"
#27958
1o
#28000
0,!
02!
1>!
0P!
b10011100 "
0-!
03!
1?!
0Q!
#28011
0d"
#28033
1s
1v
#28100
0/!
05!
1A!
0S!
00!
06!
1B!
0T!
#28299
1k"
1`"
1N"
#28592
1t"
1u"
#28863
1R"
#29000
1,!
b10011101 "
1-!
#29004
0s"
#29011
1d"
#29100
1/!
10!
#29134
1\"
0^"
#29299
0`"
0m"
19"
0h!
#29407
1|!
1f"
#29464
1[!
1!
#29469
1-"
#29493
1o"
#29603
0^!
#29675
1="
#29693
0U"
0a!
#29793
1S"
#29796
1?"
#29862
0l!
#29866
0q"
#29893
0D"
#29894
1j!
#30000
0,!
1~
12!
08!
0D!
1J!
b10101010 "
b11 #
0-!
1!!
13!
09!
0E!
1K!
#30011
0d"
#30100
0/!
1#!
15!
0;!
0G!
1M!
1$!
00!
16!
0<!
0H!
1N!
#30140
1s"
#30242
0H"
0J"
#30299
1`"
#30739
1^!
#30801
0A"
0_
#30946
0o
#31000
1,!
b10101011 "
1-!
#31011
1d"
#31021
0s
0v
#31100
1/!
10!
#31299
1j"
0`"
1m"
0N"
0+"
1w!
#31580
0t"
0u"
#31625
0/"
#31671
0[!
0!
#31711
1{!
#31863
0R"
#31866
1q"
#32000
0,!
02!
0>!
0V!
b100000 "
0-!
03!
0?!
0W!
#32011
0d"
#32100
0/!
05!
0A!
0Y!
00!
06!
0B!
0Z!
#32102
1n"
#32143
1,"
#32299
1`"
#32602
1e"
#32623
1Q"
#32807
1[!
1!
#32918
1z!
#32931
1>"
#32986
1k!
#33000
1,!
1&!
18!
b100101 "
b111 #
1-!
1'!
19!
#33011
1d"
#33100
1/!
1)!
1;!
1*!
10!
1<!
#33128
0s"
#33287
1Z"
#33299
0`"
0m"
09"
0W"
#33675
0="
#33727
0^!
#33866
0q"
#34000
0,!
12!
b100110 "
0-!
13!
#34011
0d"
#34100
0/!
15!
00!
16!
#34146
0["
#34299
1l"
1`"
1N"
#34863
1R"
#35000
1,!
1D!
1P!
b1110111 "
1-!
1E!
1Q!
#35011
1d"
#35100
1/!
1G!
1S!
10!
1H!
1T!
#35299
0`"
1m"
#35344
1]"
#35409
1m!
#35477
1P"
#35518
1<"
#35611
1g"
1h"
#35676
1}!
#35795
0[!
0!
#35866
1q"
#36000
0,!
0x
02!
08!
1>!
0J!
b1011000 "
b110 #
0-!
0y
03!
09!
1?!
0K!
#36011
0d"
0h"
#36091
1p"
#36100
0/!
0{
05!
0;!
1A!
0M!
0|
00!
06!
0<!
1B!
0N!
#36125
1."
#36170
1_"
1q!
#36299
1`"
1+"
1h!
#36370
1o!
#36394
1k
1l
#36570
0_"
0q!
#36625
1/"
#36770
0o!
#36794
0k
0l
#36862
1l!
#36953
1c
1b
#37000
1,!
b1011001 "
1-!
#37011
1d"
1h"
#37098
1p
#37100
1/!
10!
#37153
1t
1v
#37299
0k"
0`"
0m"
0N"
19"
0w!
#37353
0c
0b
#37498
0p
#37553
0t
0v
#37570
1_"
1q!
#37675
1="
#37711
0{!
#37712
1t"
1u"
#37770
1o!
#37794
1k
1l
#37863
0R"
#37866
0q"
#38000
0,!
12!
b1011010 "
0-!
13!
#38011
0d"
0h"
#38100
0/!
15!
00!
16!
#38112
0t"
0u"
#38134
0\"
#38299
1`"
#38353
1c
1b
#38407
0|!
0f"
#38469
0-"
#38493
0o"
#38498
1p
#38553
1t
1v
#38570
0_"
0q!
#38770
0o!
#38793
0S"
#38794
0k
0l
#38796
0?"
#38894
0j!
#39000
1,!
18!
b1011111 "
1-!
19!
#39011
1d"
#39100
1/!
1;!
10!
1<!
#39112
1t"
1u"
#39299
0`"
1m"
#39353
0c
0b
#39498
0p
#39553
0t
0v
#39866
1q"
#40000
0,!
0~
02!
0>!
0D!
1V!
b11000100 "
b100 #
0-!
0!!
03!
0?!
0E!
1W!
#40011
0d"
#40100
0/!
0#!
05!
0A!
0G!
1Y!
0$!
00!
06!
0B!
0H!
1Z!
#40112
0t"
0u"
#40299
1`"
1N"
#40660
1s"
#40863
1R"
#41000
1,!
b11000101 "
1-!
#41011
1d"
#41100
1/!
10!
#41259
1^!
#41299
0j"
0`"
0m"
09"
0+"
1W"
#41625
0/"
#41660
0s"
#41675
0="
#41866
0q"
#42000
0,!
12!
08!
1J!
0P!
b10100010 "
0-!
13!
09!
1K!
0Q!
#42011
0d"
#42100
0/!
15!
0;!
1M!
0S!
00!
16!
0<!
1N!
0T!
#42102
0n"
#42143
0,"
#42146
1["
#42259
0^!
#42299
1`"
#42602
0e"
#42623
0Q"
1T"
#42918
0z!
#42931
0>"
#42986
0k!
#43000
1,!
b10100011 "
1-!
#43011
1d"
#43100
1/!
10!
#43182
1K"
13"
#43287
0Z"
#43299
0`"
1m"
0N"
1w!
0h!
